{
"alerts": 
	[
		{
		"alertId": "1",
		"alertThreshold": "0",
		"queueToMonitor": "all",
		"queueIncludedFilter": "*_errors",
		"teamsIdToBeAlerted": "all"
		},
		{
		"alertId": "2",
		"alertThreshold": "10",
		"teamsIdToBeAlerted":
			[
				{
				"teamId": "1"
				},
				{
				"teamId": "2"
				}
			],
		"queueToMonitor":
			[
				{
				"queueName": "test_devops_new_houses"
				},
				{
				"queueName": "test_devops_makelaars"
				}
			]
		},
		{
		"alertId": "3",
		"alertThreshold": "25",
		"teamsIdToBeAlerted": 			
			[
				{
				"teamId": "3"
				}
			],
		"queueToMonitor": "all",
		"queueExcludedFilter": "*_errors"
		}		
	]
}